<svg width="653" height="489" viewBox="0 0 653 489" fill="none" xmlns="http://www.w3.org/2000/svg">
<path d="M229.45 365.85H325.5V476.4H229.45V365.85Z" fill="#333333"/>
<path d="M545.4 0H4.05C1.8 0 0 1.79999 0 4.04999V368.8C0 371.05 1.8 372.85 4.05 372.85H545.4C547.65 372.85 549.45 371.05 549.45 368.8V4.09998C549.45 1.84998 547.65 0 545.4 0Z" fill="#333333"/>
<path d="M10.25 9.5H539.2V322.8H10.25V9.5Z" fill="#7B64E7" fill-opacity="0.5"/>
<path d="M18.15 17.25H531.25V315.1H18.15V17.25Z" fill="#F4F4F4"/>
<path d="M387.1 471.7H167.8C163.1 471.7 159.25 475.55 159.25 480.25C159.25 484.95 163.1 488.8 167.8 488.8H387.1C391.8 488.8 395.65 484.95 395.65 480.25C395.65 475.55 391.85 471.7 387.1 471.7Z" fill="#333333"/>
<path d="M285.85 349.2C285.85 350.664 285.562 352.114 285.001 353.467C284.441 354.82 283.62 356.049 282.584 357.084C281.549 358.12 280.32 358.941 278.967 359.501C277.614 360.062 276.164 360.35 274.7 360.35C271.743 360.35 268.907 359.175 266.816 357.084C264.725 354.993 263.55 352.157 263.55 349.2C263.55 346.243 264.725 343.407 266.816 341.316C268.907 339.225 271.743 338.05 274.7 338.05C276.164 338.05 277.614 338.338 278.967 338.899C280.32 339.459 281.549 340.28 282.584 341.316C283.62 342.351 284.441 343.58 285.001 344.933C285.562 346.286 285.85 347.736 285.85 349.2Z" fill="#F4F4F4"/>
<path d="M18.15 17.25H531.25V33.3H18.15V17.25Z" fill="#9F1464"/>
<path d="M94.7999 73.8H337.55V225.15H94.7999V73.8Z" fill="#9F1464" fill-opacity="0.7"/>
<path d="M288.75 123.15L220.7 170.65C214.55 174.95 206.4 175.05 200.15 170.9L157.9 143C148.2 136.6 135.55 136.8 126.05 143.5C116.65 150.15 104.7 158.7 94.7999 165.85V225.05H337.55V134.1L320.45 122.8C310.8 116.4 298.25 116.55 288.75 123.15Z" fill="#4222DD" fill-opacity="0.7"/>
<path d="M143.9 102.25C143.9 103.846 143.586 105.425 142.975 106.9C142.364 108.374 141.47 109.713 140.341 110.841C139.213 111.97 137.874 112.865 136.4 113.475C134.925 114.086 133.345 114.4 131.75 114.4C130.154 114.4 128.574 114.086 127.1 113.475C125.626 112.865 124.287 111.97 123.159 110.841C122.03 109.713 121.135 108.374 120.525 106.9C119.914 105.425 119.6 103.846 119.6 102.25C119.6 99.0276 120.88 95.9372 123.159 93.6586C125.437 91.3801 128.528 90.1 131.75 90.1C134.972 90.1 138.063 91.3801 140.341 93.6586C142.62 95.9372 143.9 99.0276 143.9 102.25Z" fill="#EB60B1" fill-opacity="0.5"/>
<path d="M348.55 232V235H345.55" stroke="#7A57C9" stroke-width="2" stroke-linecap="round" stroke-linejoin="round"/>
<path d="M335.85 235H91.6499" stroke="#7A57C9" stroke-width="2" stroke-linecap="round" stroke-linejoin="round" stroke-dasharray="11.67 19.46"/>
<path d="M86.7999 235H83.7999V232" stroke="#7A57C9" stroke-width="2" stroke-linecap="round" stroke-linejoin="round"/>
<path d="M83.7999 222.25V71.8" stroke="#7A57C9" stroke-width="2" stroke-linecap="round" stroke-linejoin="round" stroke-dasharray="11.65 19.41"/>
<path d="M83.7999 66.95V63.95H86.7999" stroke="#7A57C9" stroke-width="2" stroke-linecap="round" stroke-linejoin="round"/>
<path d="M96.5499 63.95H340.7" stroke="#7A57C9" stroke-width="2" stroke-linecap="round" stroke-linejoin="round" stroke-dasharray="11.67 19.46"/>
<path d="M345.55 63.95H348.55V66.95" stroke="#7A57C9" stroke-width="2" stroke-linecap="round" stroke-linejoin="round"/>
<path d="M348.55 76.65V227.1" stroke="#7A57C9" stroke-width="2" stroke-linecap="round" stroke-linejoin="round" stroke-dasharray="11.65 19.41"/>
<path d="M80.35 59.55H89.5V68.7H80.35V59.55Z" fill="#B28CF3"/>
<path d="M80.35 228.9H89.5V238.05H80.35V228.9Z" fill="#B28CF3"/>
<path d="M344 59.55H353.15V68.7H344V59.55Z" fill="#B28CF3"/>
<path d="M80.35 144.9H89.5V154.05H80.35V144.9Z" fill="#B28CF3"/>
<path d="M344 144.9H353.15V154.05H344V144.9Z" fill="#B28CF3"/>
<path d="M344 228.9H353.15V238.05H344V228.9Z" fill="#B28CF3"/>
<path d="M211.6 59.55H220.75V68.7H211.6V59.55Z" fill="#B28CF3"/>
<path d="M211.6 228.9H220.75V238.05H211.6V228.9Z" fill="#B28CF3"/>
<path d="M440.9 258.35H391.4C387.55 258.35 384.4 255.2 384.4 251.35V66.55C384.4 62.7 387.55 59.55 391.4 59.55H440.9C444.75 59.55 447.9 62.7 447.9 66.55V251.4C447.9 255.25 444.75 258.35 440.9 258.35Z" fill="#2E189B" fill-opacity="0.3"/>
<path d="M392.7 84.6H413.8V105.7H392.7V84.6Z" fill="#EB60B1" fill-opacity="0.5"/>
<path d="M419.75 84.6H440.85V105.7H419.75V84.6Z" fill="#EB60B1" fill-opacity="0.8"/>
<path d="M392.7 112.95H413.8V134.05H392.7V112.95Z" fill="#E31C8F"/>
<path d="M419.75 112.95H440.85V134.05H419.75V112.95Z" fill="#9F1464" fill-opacity="0.8"/>
<path d="M392.7 141.25H413.8V162.35H392.7V141.25Z" fill="#B28CF3"/>
<path d="M419.75 141.25H440.85V162.35H419.75V141.25Z" fill="#945EF2"/>
<path d="M392.7 169.6H413.8V190.7H392.7V169.6Z" fill="#9F1464"/>
<path d="M419.75 169.6H440.85V190.7H419.75V169.6Z" fill="#C3C3C3"/>
<path d="M419.75 197.9H440.85V219H419.75V197.9Z" fill="#F4F4F4"/>
<path d="M392.7 226.2H413.8V247.3H392.7V226.2Z" fill="#4222DD" fill-opacity="0.7"/>
<path d="M419.75 226.2H440.85V247.3H419.75V226.2Z" fill="#C3C3C3"/>
<path d="M440.7 59.55H391.65C387.65 59.55 384.4 62.8 384.4 66.8V74.7H447.9V66.8C447.9 62.75 444.65 59.55 440.7 59.55Z" fill="#2E189B"/>
<path d="M277.4 290.45H135.25C132.15 290.45 129.6 287.95 129.6 284.8V258.9C129.6 255.8 132.1 253.25 135.25 253.25H277.4C280.5 253.25 283.05 255.75 283.05 258.9V284.8C283 287.9 280.5 290.45 277.4 290.45Z" fill="#4222DD" fill-opacity="0.3"/>
<path d="M256.05 284.2V266.8H273.5V284.2H256.05Z" fill="#F4F4F4"/>
<path d="M232.7 284.2V266.8H250.1V284.2H232.7Z" fill="#F4F4F4"/>
<path d="M209.3 284.2V266.8H226.7V284.2H209.3Z" fill="#F4F4F4"/>
<path d="M185.9 284.2V266.8H203.35V284.2H185.9Z" fill="#F4F4F4"/>
<path d="M162.55 284.2V266.8H179.95V284.2H162.55Z" fill="#F4F4F4"/>
<path d="M139.15 284.2V266.8H156.55V284.2H139.15Z" fill="#F4F4F4"/>
<path d="M278.2 253.3H134.4C131.75 253.3 129.6 255.45 129.6 258.1V262.05H283V258.1C283 255.45 280.85 253.3 278.2 253.3Z" fill="#4222DD"/>
<path d="M581.85 193.15L568.95 191.9C568.25 188.7 567 185.75 565.3 183.1L573.55 173.1C573.85 172.7 573.85 172.2 573.5 171.85L570.8 169.15L568.1 166.45C567.75 166.1 567.2 166.1 566.85 166.4L556.85 174.65C554.2 172.95 551.2 171.7 548.05 171L546.8 158.1C546.75 157.6 546.35 157.25 545.85 157.25H542.05H538.25C537.75 157.25 537.35 157.6 537.3 158.1L536.05 171C532.85 171.7 529.9 172.95 527.25 174.65L517.25 166.4C516.85 166.1 516.35 166.1 516 166.45L513.3 169.15L510.6 171.85C510.25 172.2 510.25 172.75 510.55 173.1L518.8 183.1C517.1 185.75 515.85 188.75 515.15 191.9L502.25 193.15C501.75 193.2 501.4 193.6 501.4 194.1V197.9V201.7C501.4 202.2 501.75 202.6 502.25 202.65L515.15 203.9C515.85 207.1 517.1 210.05 518.8 212.7L510.55 222.7C510.25 223.1 510.25 223.6 510.6 223.95L513.3 226.65L516 229.35C516.35 229.7 516.9 229.7 517.25 229.4L527.25 221.15C529.9 222.85 532.9 224.1 536.05 224.8L537.3 237.7C537.35 238.2 537.75 238.55 538.25 238.55H542.05H545.85C546.35 238.55 546.75 238.2 546.8 237.7L548.05 224.8C551.25 224.1 554.2 222.85 556.85 221.15L566.85 229.4C567.25 229.7 567.75 229.7 568.1 229.35L570.8 226.65L573.5 223.95C573.85 223.6 573.85 223.05 573.55 222.7L565.3 212.7C567 210.05 568.25 207.05 568.95 203.9L581.85 202.65C582.35 202.6 582.7 202.2 582.7 201.7V197.9V194.1C582.7 193.6 582.35 193.2 581.85 193.15ZM542.05 219.3C530.25 219.3 520.65 209.7 520.65 197.9C520.65 186.1 530.25 176.5 542.05 176.5C553.85 176.5 563.45 186.1 563.45 197.9C563.45 209.7 553.85 219.3 542.05 219.3Z" fill="#4222DD" fill-opacity="0.7"/>
<path d="M542.05 180.2C532.25 180.2 524.35 188.15 524.35 197.9C524.35 207.7 532.3 215.6 542.05 215.6C551.8 215.6 559.75 207.65 559.75 197.9C559.75 188.1 551.8 180.2 542.05 180.2ZM542.05 212.8C533.8 212.8 527.15 206.1 527.15 197.9C527.15 189.65 533.85 183 542.05 183C550.25 183 556.95 189.7 556.95 197.9C556.95 206.15 550.25 212.8 542.05 212.8Z" fill="#4222DD" fill-opacity="0.7"/>
<path d="M651 265L638.65 263.9C638.6 263.75 638.55 263.65 638.55 263.5L648.75 256.35C649.5 255.8 649.75 254.8 649.25 254L646.7 249.6L644.15 245.2C643.7 244.4 642.7 244.1 641.85 244.5L630.6 249.75C630.5 249.65 630.4 249.55 630.3 249.45L635.55 238.2C635.95 237.35 635.65 236.35 634.85 235.9L630.45 233.35L626.05 230.8C625.25 230.35 624.25 230.55 623.7 231.3L616.55 241.5C616.4 241.45 616.3 241.4 616.15 241.4L615.05 229.05C614.95 228.15 614.2 227.45 613.3 227.45H608.2H603.1C602.2 227.45 601.4 228.15 601.35 229.05L600.25 241.4C600.1 241.45 600 241.5 599.85 241.5L592.7 231.3C592.15 230.55 591.15 230.3 590.35 230.8L585.95 233.35L581.55 235.9C580.75 236.35 580.45 237.35 580.85 238.2L586.1 249.45C586 249.55 585.9 249.65 585.8 249.75L574.55 244.5C573.7 244.1 572.7 244.4 572.25 245.2L569.7 249.6L567.15 254C566.7 254.8 566.9 255.8 567.65 256.35L577.85 263.5C577.8 263.65 577.75 263.75 577.75 263.9L565.4 265C564.5 265.1 563.8 265.85 563.8 266.75V271.85V276.95C563.8 277.85 564.5 278.65 565.4 278.7L577.75 279.8C577.8 279.95 577.85 280.05 577.85 280.2L567.65 287.35C566.9 287.9 566.65 288.9 567.15 289.7L569.7 294.1L572.25 298.5C572.7 299.3 573.7 299.6 574.55 299.2L585.8 293.95C585.9 294.05 586 294.15 586.1 294.25L580.85 305.5C580.45 306.35 580.75 307.35 581.55 307.8L585.95 310.35L590.35 312.9C591.15 313.35 592.15 313.15 592.7 312.4L599.85 302.2C600 302.25 600.1 302.3 600.25 302.3L601.35 314.65C601.45 315.55 602.2 316.25 603.1 316.25H608.2H613.3C614.2 316.25 615 315.55 615.05 314.65L616.15 302.3C616.3 302.25 616.4 302.2 616.55 302.2L623.7 312.4C624.25 313.15 625.25 313.4 626.05 312.9L630.45 310.35L634.85 307.8C635.65 307.35 635.95 306.35 635.55 305.5L630.3 294.25C630.4 294.15 630.5 294.05 630.6 293.95L641.85 299.2C642.7 299.6 643.7 299.3 644.15 298.5L646.7 294.1L649.25 289.7C649.7 288.9 649.5 287.9 648.75 287.35L638.55 280.2C638.6 280.05 638.65 279.95 638.65 279.8L651 278.7C651.9 278.6 652.6 277.85 652.6 276.95V271.85V266.8C652.6 265.85 651.9 265.1 651 265ZM608.2 295.35C595.25 295.35 584.7 284.85 584.7 271.85C584.7 258.9 595.2 248.35 608.2 248.35C621.15 248.35 631.7 258.85 631.7 271.85C631.7 284.85 621.2 295.35 608.2 295.35Z" fill="#A53AB5"/>
<path d="M600.9 138.35L595.65 137.9C595.65 137.85 595.6 137.8 595.6 137.75L599.95 134.7C600.25 134.5 600.35 134.05 600.15 133.7L599.05 131.85L597.95 130C597.75 129.65 597.35 129.55 597 129.7L592.2 131.95C592.15 131.9 592.1 131.85 592.1 131.85L594.35 127.05C594.5 126.7 594.4 126.25 594.05 126.1L592.2 125L590.35 123.9C590 123.7 589.6 123.8 589.35 124.1L586.3 128.45C586.25 128.45 586.2 128.4 586.15 128.4L585.7 123.15C585.65 122.75 585.35 122.45 584.95 122.45H582.8H580.65C580.25 122.45 579.95 122.75 579.9 123.15L579.45 128.4C579.4 128.4 579.35 128.45 579.3 128.45L576.25 124.1C576.05 123.8 575.6 123.7 575.25 123.9L573.4 125L571.55 126.1C571.2 126.3 571.1 126.7 571.25 127.05L573.5 131.85C573.45 131.9 573.4 131.95 573.4 131.95L568.6 129.7C568.25 129.55 567.8 129.65 567.65 130L566.55 131.85L565.45 133.7C565.25 134.05 565.35 134.45 565.65 134.7L570 137.75C570 137.8 569.95 137.85 569.95 137.9L564.7 138.35C564.3 138.4 564 138.7 564 139.1V141.25V143.4C564 143.8 564.3 144.1 564.7 144.15L569.95 144.6C569.95 144.65 570 144.7 570 144.75L565.65 147.8C565.35 148 565.25 148.45 565.45 148.8L566.55 150.65L567.65 152.5C567.85 152.85 568.25 152.95 568.6 152.8L573.4 150.55C573.45 150.6 573.5 150.65 573.5 150.65L571.25 155.45C571.1 155.8 571.2 156.25 571.55 156.4L573.4 157.5L575.25 158.6C575.6 158.8 576 158.7 576.25 158.4L579.3 154.05C579.35 154.05 579.4 154.1 579.45 154.1L579.9 159.35C579.95 159.75 580.25 160.05 580.65 160.05H582.8H584.95C585.35 160.05 585.65 159.75 585.7 159.35L586.15 154.1C586.2 154.1 586.25 154.05 586.3 154.05L589.35 158.4C589.55 158.7 590 158.8 590.35 158.6L592.2 157.5L594.05 156.4C594.4 156.2 594.5 155.8 594.35 155.45L592.1 150.65C592.15 150.6 592.2 150.55 592.2 150.55L597 152.8C597.35 152.95 597.8 152.85 597.95 152.5L599.05 150.65L600.15 148.8C600.35 148.45 600.25 148.05 599.95 147.8L595.6 144.75C595.6 144.7 595.65 144.65 595.65 144.6L600.9 144.15C601.3 144.1 601.6 143.8 601.6 143.4V141.25V139.1C601.6 138.7 601.3 138.4 600.9 138.35ZM582.7 151.25C577.2 151.25 572.7 146.75 572.7 141.25C572.7 135.75 577.2 131.25 582.7 131.25C588.2 131.25 592.7 135.75 592.7 141.25C592.7 146.8 588.2 151.25 582.7 151.25Z" fill="#EB60B1" fill-opacity="0.8"/>
</svg>
