<svg width="71" height="28" viewBox="0 0 71 28" fill="none" xmlns="http://www.w3.org/2000/svg">
<path d="M9.62004 27.36C7.86804 27.36 6.32004 27.12 4.97604 26.64C3.63204 26.136 2.34804 25.332 1.12404 24.228C0.620042 23.796 0.368042 23.304 0.368042 22.752C0.368042 22.32 0.536042 21.936 0.872042 21.6C1.20804 21.24 1.60404 21.06 2.06004 21.06C2.46804 21.06 2.81604 21.192 3.10404 21.456C4.06404 22.344 5.04804 23.004 6.05604 23.436C7.08804 23.844 8.25204 24.048 9.54804 24.048C11.06 24.048 12.332 23.7 13.364 23.004C14.42 22.308 14.948 21.432 14.948 20.376C14.924 19.128 14.396 18.168 13.364 17.496C12.356 16.8 10.808 16.224 8.72004 15.768C6.24804 15.264 4.34004 14.436 2.99604 13.284C1.67604 12.132 1.01604 10.536 1.01604 8.49599C1.01604 7.07999 1.38804 5.84398 2.13204 4.78798C2.87604 3.70798 3.90804 2.87998 5.22804 2.30398C6.54804 1.72798 8.03604 1.43998 9.69204 1.43998C11.18 1.43998 12.584 1.67998 13.904 2.15998C15.224 2.63998 16.292 3.27599 17.108 4.06798C17.66 4.54798 17.936 5.06398 17.936 5.61598C17.936 6.04798 17.768 6.43198 17.432 6.76798C17.12 7.10398 16.736 7.27198 16.28 7.27198C15.944 7.27198 15.668 7.17598 15.452 6.98398C14.828 6.35998 13.964 5.83198 12.86 5.39998C11.756 4.96798 10.7 4.75198 9.69204 4.75198C8.08404 4.75198 6.80004 5.08798 5.84004 5.75998C4.90404 6.40798 4.43604 7.27199 4.43604 8.35199C4.43604 9.52799 4.90404 10.428 5.84004 11.052C6.80004 11.676 8.21604 12.204 10.088 12.636C11.96 13.044 13.484 13.524 14.66 14.076C15.86 14.628 16.784 15.396 17.432 16.38C18.08 17.364 18.404 18.648 18.404 20.232C18.404 21.624 18.008 22.86 17.216 23.94C16.448 25.02 15.392 25.86 14.048 26.46C12.704 27.06 11.228 27.36 9.62004 27.36Z" fill="#333333"/>
<path d="M25.7492 25.272C25.7492 25.752 25.5812 26.16 25.2452 26.496C24.9332 26.832 24.5252 27 24.0212 27C23.5412 27 23.1332 26.832 22.7972 26.496C22.4852 26.16 22.3292 25.752 22.3292 25.272V9.68398C22.3292 9.20398 22.4852 8.79598 22.7972 8.45998C23.1332 8.12398 23.5412 7.95598 24.0212 7.95598C24.5252 7.95598 24.9332 8.12398 25.2452 8.45998C25.5812 8.79598 25.7492 9.20398 25.7492 9.68398V25.272ZM24.0212 5.57998C23.3252 5.57998 22.8212 5.45998 22.5092 5.21999C22.2212 4.95598 22.0772 4.54798 22.0772 3.99598V3.41998C22.0772 2.84398 22.2332 2.43599 22.5452 2.19599C22.8812 1.95598 23.3852 1.83598 24.0572 1.83598C24.7292 1.83598 25.2092 1.96798 25.4972 2.23198C25.8092 2.47198 25.9652 2.86798 25.9652 3.41998V3.99598C25.9652 4.57198 25.8092 4.97999 25.4972 5.21999C25.1852 5.45998 24.6932 5.57998 24.0212 5.57998Z" fill="#333333"/>
<path d="M34.3734 25.272C34.3734 25.752 34.2054 26.16 33.8694 26.496C33.5334 26.832 33.1254 27 32.6454 27C32.1654 27 31.7574 26.832 31.4214 26.496C31.1094 26.16 30.9534 25.752 30.9534 25.272V2.08798C30.9534 1.60799 31.1214 1.19999 31.4574 0.863985C31.7934 0.527985 32.2014 0.359985 32.6814 0.359985C33.1614 0.359985 33.5574 0.527985 33.8694 0.863985C34.2054 1.19999 34.3734 1.60799 34.3734 2.08798V25.272Z" fill="#333333"/>
<path d="M44.7774 11.484V22.212C44.7774 23.412 45.3174 24.012 46.3974 24.012C46.5654 24.012 46.7934 23.976 47.0814 23.904C47.3694 23.808 47.5974 23.76 47.7654 23.76C48.0774 23.76 48.3414 23.892 48.5574 24.156C48.7734 24.42 48.8814 24.756 48.8814 25.164C48.8814 25.668 48.5934 26.1 48.0174 26.46C47.4414 26.82 46.7934 27 46.0734 27C45.2814 27 44.5494 26.916 43.8774 26.748C43.2294 26.58 42.6414 26.16 42.1134 25.488C41.6094 24.792 41.3574 23.748 41.3574 22.356V11.484H39.2694C38.8134 11.484 38.4294 11.34 38.1174 11.052C37.8294 10.74 37.6854 10.356 37.6854 9.89998C37.6854 9.44398 37.8294 9.07198 38.1174 8.78398C38.4294 8.49599 38.8134 8.35199 39.2694 8.35199H41.3574V5.32798C41.3574 4.84798 41.5134 4.43998 41.8254 4.10398C42.1614 3.76798 42.5814 3.59998 43.0854 3.59998C43.5654 3.59998 43.9614 3.76798 44.2734 4.10398C44.6094 4.43998 44.7774 4.84798 44.7774 5.32798V8.35199H47.7654C48.2214 8.35199 48.5934 8.50799 48.8814 8.81999C49.1934 9.10799 49.3494 9.47998 49.3494 9.93598C49.3494 10.392 49.1934 10.764 48.8814 11.052C48.5934 11.34 48.2214 11.484 47.7654 11.484H44.7774Z" fill="#333333"/>
<path d="M68.6412 7.88399C69.1452 7.88399 69.5532 8.05199 69.8652 8.38799C70.2012 8.69999 70.3692 9.11998 70.3692 9.64798V25.272C70.3692 25.752 70.2012 26.16 69.8652 26.496C69.5532 26.832 69.1452 27 68.6412 27C68.1372 27 67.7292 26.844 67.4172 26.532C67.1052 26.196 66.9492 25.776 66.9492 25.272V24.336C66.3252 25.176 65.4732 25.896 64.3932 26.496C63.3132 27.072 62.1492 27.36 60.9012 27.36C59.2692 27.36 57.7812 26.94 56.4372 26.1C55.1172 25.26 54.0732 24.096 53.3052 22.608C52.5612 21.096 52.1892 19.404 52.1892 17.532C52.1892 15.66 52.5612 13.98 53.3052 12.492C54.0732 10.98 55.1172 9.80398 56.4372 8.96398C57.7572 8.12398 59.2092 7.70399 60.7932 7.70399C62.0652 7.70399 63.2412 7.96799 64.3212 8.49599C65.4252 9.02399 66.3012 9.69599 66.9492 10.512V9.64798C66.9492 9.14398 67.1052 8.72399 67.4172 8.38799C67.7292 8.05199 68.1372 7.88399 68.6412 7.88399ZM61.2972 24.192C62.4252 24.192 63.4212 23.904 64.2852 23.328C65.1732 22.752 65.8572 21.96 66.3372 20.952C66.8412 19.944 67.0932 18.804 67.0932 17.532C67.0932 16.284 66.8412 15.156 66.3372 14.148C65.8572 13.14 65.1732 12.348 64.2852 11.772C63.4212 11.172 62.4252 10.872 61.2972 10.872C60.1692 10.872 59.1612 11.16 58.2732 11.736C57.4092 12.312 56.7252 13.104 56.2212 14.112C55.7412 15.12 55.5012 16.26 55.5012 17.532C55.5012 18.804 55.7412 19.944 56.2212 20.952C56.7252 21.96 57.4092 22.752 58.2732 23.328C59.1612 23.904 60.1692 24.192 61.2972 24.192Z" fill="#333333"/>
</svg>
