<svg width="655" height="586" viewBox="0 0 655 586" fill="none" xmlns="http://www.w3.org/2000/svg">
<path d="M273.547 436.099H387.993V567.903H273.547V436.099Z" fill="#333333"/>
<path d="M461.543 562.237H200.1C194.486 562.237 189.902 566.821 189.902 572.435C189.902 578.049 194.486 582.633 200.1 582.633H461.543C467.158 582.633 471.742 578.049 471.742 572.435C471.69 566.821 467.158 562.237 461.543 562.237Z" fill="#333333"/>
<path d="M650.209 0H4.84154C2.16324 0 0 2.16324 0 4.84154V439.602C0 442.28 2.16324 444.443 4.84154 444.443H650.158C652.836 444.443 654.999 442.28 654.999 439.602V4.84154C655.051 2.16324 652.887 0 650.209 0Z" fill="#333333"/>
<path d="M12.2585 11.2798H642.792V384.8H12.2585V11.2798Z" fill="#4222DD" fill-opacity="0.5"/>
<path d="M21.6839 20.4994H633.315V375.529H21.6839V20.4994Z" fill="#F4F4F4"/>
<path d="M340.814 416.27C340.814 419.794 339.414 423.174 336.922 425.666C334.43 428.158 331.05 429.558 327.525 429.558C324.001 429.558 320.621 428.158 318.129 425.666C315.637 423.174 314.237 419.794 314.237 416.27C314.237 412.746 315.637 409.366 318.129 406.873C320.621 404.381 324.001 402.981 327.525 402.981C331.05 402.981 334.43 404.381 336.922 406.873C339.414 409.366 340.814 412.746 340.814 416.27Z" fill="#F4F4F4"/>
<path d="M469 81.2H598.15V160.3H469V81.2Z" fill="#7B64E7" fill-opacity="0.3"/>
<path d="M474.7 98.85H497.7V121.85H474.7V98.85Z" fill="#7E5BFF"/>
<path d="M506.5 98.85H529.5V121.85H506.5V98.85Z" fill="#E31C8F"/>
<path d="M538.25 98.85H561.25V121.85H538.25V98.85Z" fill="#464392"/>
<path d="M474.75 128.55H497.75V151.55H474.75V128.55Z" fill="#5C41E5"/>
<path d="M506.5 128.55H529.5V151.55H506.5V128.55Z" fill="#E31C8F"/>
<path d="M538.3 128.55H561.3V151.55H538.3V128.55Z" fill="#303075"/>
<path d="M569.35 98.85H592.35V121.85H569.35V98.85Z" fill="#FC70C7"/>
<path d="M569.4 128.55H592.4V151.55H569.4V128.55Z" fill="#DB4DAC"/>
<path d="M469 81.2H598.15V92.15H469V81.2Z" fill="#7B64E7" fill-opacity="0.5"/>
<path d="M578.4 87.25C578.4 87.4404 578.362 87.629 578.29 87.8049C578.217 87.9808 578.11 88.1407 577.975 88.2753C577.841 88.4099 577.681 88.5168 577.505 88.5896C577.329 88.6625 577.14 88.7 576.95 88.7C576.76 88.7 576.571 88.6625 576.395 88.5896C576.219 88.5168 576.059 88.4099 575.925 88.2753C575.79 88.1407 575.683 87.9808 575.61 87.8049C575.538 87.629 575.5 87.4404 575.5 87.25C575.5 87.0596 575.538 86.871 575.61 86.6951C575.683 86.5192 575.79 86.3593 575.925 86.2247C576.059 86.0901 576.219 85.9832 576.395 85.9104C576.571 85.8375 576.76 85.8 576.95 85.8C577.14 85.8 577.329 85.8375 577.505 85.9104C577.681 85.9832 577.841 86.0901 577.975 86.2247C578.11 86.3593 578.217 86.5192 578.29 86.6951C578.362 86.871 578.4 87.0596 578.4 87.25Z" fill="#F4F4F4"/>
<path d="M585.5 87.25C585.5 87.4404 585.462 87.629 585.39 87.8049C585.317 87.9808 585.21 88.1407 585.075 88.2753C584.941 88.4099 584.781 88.5168 584.605 88.5896C584.429 88.6625 584.24 88.7 584.05 88.7C583.86 88.7 583.671 88.6625 583.495 88.5896C583.319 88.5168 583.159 88.4099 583.025 88.2753C582.89 88.1407 582.783 87.9808 582.71 87.8049C582.638 87.629 582.6 87.4404 582.6 87.25C582.6 87.0596 582.638 86.871 582.71 86.6951C582.783 86.5192 582.89 86.3593 583.025 86.2247C583.159 86.0901 583.319 85.9832 583.495 85.9104C583.671 85.8375 583.86 85.8 584.05 85.8C584.24 85.8 584.429 85.8375 584.605 85.9104C584.781 85.9832 584.941 86.0901 585.075 86.2247C585.21 86.3593 585.317 86.5192 585.39 86.6951C585.462 86.871 585.5 87.0596 585.5 87.25Z" fill="#F4F4F4"/>
<path d="M592.55 87.25C592.55 87.6346 592.397 88.0034 592.125 88.2753C591.853 88.5472 591.485 88.7 591.1 88.7C590.715 88.7 590.347 88.5472 590.075 88.2753C589.803 88.0034 589.65 87.6346 589.65 87.25C589.65 86.8654 589.803 86.4966 590.075 86.2247C590.347 85.9528 590.715 85.8 591.1 85.8C591.485 85.8 591.853 85.9528 592.125 86.2247C592.397 86.4966 592.55 86.8654 592.55 87.25Z" fill="#F4F4F4"/>
<path d="M196.083 83.3H446.833V283.55H196.083V83.3Z" fill="#7B64E7" fill-opacity="0.3"/>
<path d="M196.95 83.3H447.7V97.85H196.95V83.3Z" fill="#7B64E7" fill-opacity="0.5"/>
<path d="M419.05 91.75C419.05 92.2937 418.834 92.8151 418.45 93.1996C418.065 93.584 417.544 93.8 417 93.8C416.456 93.8 415.935 93.584 415.55 93.1996C415.166 92.8151 414.95 92.2937 414.95 91.75C414.95 91.2063 415.166 90.6849 415.55 90.3004C415.935 89.916 416.456 89.7 417 89.7C417.544 89.7 418.065 89.916 418.45 90.3004C418.834 90.6849 419.05 91.2063 419.05 91.75Z" fill="#F4F4F4"/>
<path d="M428.05 91.75C428.05 92.2937 427.834 92.8151 427.45 93.1996C427.065 93.584 426.544 93.8 426 93.8C425.456 93.8 424.935 93.584 424.55 93.1996C424.166 92.8151 423.95 92.2937 423.95 91.75C423.95 91.2063 424.166 90.6849 424.55 90.3004C424.935 89.916 425.456 89.7 426 89.7C426.544 89.7 427.065 89.916 427.45 90.3004C427.834 90.6849 428.05 91.2063 428.05 91.75Z" fill="#F4F4F4"/>
<path d="M437.05 91.75C437.05 92.2937 436.834 92.8151 436.45 93.1996C436.065 93.584 435.544 93.8 435 93.8C434.456 93.8 433.935 93.584 433.55 93.1996C433.166 92.8151 432.95 92.2937 432.95 91.75C432.95 91.2063 433.166 90.6849 433.55 90.3004C433.935 89.916 434.456 89.7 435 89.7C435.544 89.7 436.065 89.916 436.45 90.3004C436.834 90.6849 437.05 91.2063 437.05 91.75Z" fill="#F4F4F4"/>
<path d="M236.3 128.85H409.4V250.35H236.3V128.85Z" fill="#7E5BFF"/>
<path d="M236.3 200.45C239.75 203.1 243.95 204.55 249.2 203.9C258.65 202.7 267.1 195.5 276.85 196.2C286.35 196.9 292.25 206.35 301.3 208.6C308.7 210.4 314.75 206.6 317.65 199.85C320.7 192.75 319.6 184.2 323.65 177.5C330 167.1 343.15 174.85 351.05 178.75C355.45 180.9 359.8 183.1 364.2 185.25C368.8 187.5 373.35 190.15 378.3 191.7C385.6 193.95 393.7 192.4 397.15 185C398.5 182.15 399 179 400.2 176.1C402 171.7 405.25 170.25 409.35 169.3V128.95H236.3V200.45Z" fill="#464392"/>
<path d="M286.9 226.6C286.9 229.875 285.599 233.017 283.283 235.333C280.967 237.649 277.825 238.95 274.55 238.95C271.275 238.95 268.133 237.649 265.817 235.333C263.501 233.017 262.2 229.875 262.2 226.6C262.2 223.325 263.501 220.183 265.817 217.867C268.133 215.551 271.275 214.25 274.55 214.25C277.825 214.25 280.967 215.551 283.283 217.867C285.599 220.183 286.9 223.325 286.9 226.6Z" fill="#E31C8F"/>
<path d="M345.746 192.5C345.746 193.465 345.556 194.421 345.187 195.313C344.817 196.204 344.276 197.015 343.593 197.697C342.911 198.38 342.101 198.921 341.209 199.291C340.317 199.66 339.361 199.85 338.396 199.85C337.431 199.85 336.475 199.66 335.583 199.291C334.692 198.921 333.881 198.38 333.199 197.697C332.516 197.015 331.975 196.204 331.606 195.313C331.236 194.421 331.046 193.465 331.046 192.5C331.046 190.551 331.82 188.681 333.199 187.303C334.577 185.924 336.447 185.15 338.396 185.15C340.345 185.15 342.215 185.924 343.593 187.303C344.972 188.681 345.746 190.551 345.746 192.5Z" fill="#E31C8F"/>
<path d="M398.5 226.6C398.5 228.222 398.181 229.828 397.56 231.326C396.939 232.825 396.03 234.186 394.883 235.333C393.736 236.48 392.375 237.389 390.876 238.01C389.378 238.631 387.772 238.95 386.15 238.95C382.875 238.95 379.733 237.649 377.417 235.333C375.101 233.017 373.8 229.875 373.8 226.6C373.8 223.325 375.101 220.183 377.417 217.867C379.733 215.551 382.875 214.25 386.15 214.25C387.772 214.25 389.378 214.569 390.876 215.19C392.375 215.811 393.736 216.72 394.883 217.867C396.03 219.014 396.939 220.375 397.56 221.874C398.181 223.372 398.5 224.978 398.5 226.6Z" fill="#E31C8F"/>
<path d="M344.067 195.587L338.043 194.583L344.067 195.587Z" fill="#E31C8F"/>
<path d="M422 262.6H420C419.85 262.6 419.75 262.5 419.75 262.35C419.75 262.2 419.85 262.1 420 262.1H421.75V260.35C421.75 260.2 421.85 260.1 422 260.1C422.15 260.1 422.25 260.2 422.25 260.35V262.35C422.25 262.45 422.1 262.6 422 262.6Z" fill="#7E5BFF"/>
<path d="M415 262.6H411C410.85 262.6 410.75 262.5 410.75 262.35C410.75 262.2 410.85 262.1 411 262.1H415C415.15 262.1 415.25 262.2 415.25 262.35C415.25 262.5 415.15 262.6 415 262.6ZM406 262.6H402C401.85 262.6 401.75 262.5 401.75 262.35C401.75 262.2 401.85 262.1 402 262.1H406C406.15 262.1 406.25 262.2 406.25 262.35C406.25 262.5 406.15 262.6 406 262.6ZM397.05 262.6H393.05C392.9 262.6 392.8 262.5 392.8 262.35C392.8 262.2 392.9 262.1 393.05 262.1H397.05C397.2 262.1 397.3 262.2 397.3 262.35C397.3 262.5 397.2 262.6 397.05 262.6ZM388.05 262.6H384.05C383.9 262.6 383.8 262.5 383.8 262.35C383.8 262.2 383.9 262.1 384.05 262.1H388.05C388.2 262.1 388.3 262.2 388.3 262.35C388.3 262.5 388.2 262.6 388.05 262.6ZM379.1 262.6H375.1C374.95 262.6 374.85 262.5 374.85 262.35C374.85 262.2 374.95 262.1 375.1 262.1H379.1C379.25 262.1 379.35 262.2 379.35 262.35C379.35 262.5 379.2 262.6 379.1 262.6ZM370.1 262.6H366.1C365.95 262.6 365.85 262.5 365.85 262.35C365.85 262.2 365.95 262.1 366.1 262.1H370.1C370.25 262.1 370.35 262.2 370.35 262.35C370.35 262.5 370.25 262.6 370.1 262.6ZM361.15 262.6H357.15C357 262.6 356.9 262.5 356.9 262.35C356.9 262.2 357 262.1 357.15 262.1H361.15C361.3 262.1 361.4 262.2 361.4 262.35C361.4 262.5 361.25 262.6 361.15 262.6ZM352.15 262.6H348.15C348 262.6 347.9 262.5 347.9 262.35C347.9 262.2 348 262.1 348.15 262.1H352.15C352.3 262.1 352.4 262.2 352.4 262.35C352.4 262.5 352.3 262.6 352.15 262.6ZM343.2 262.6H339.2C339.05 262.6 338.95 262.5 338.95 262.35C338.95 262.2 339.05 262.1 339.2 262.1H343.2C343.35 262.1 343.45 262.2 343.45 262.35C343.45 262.5 343.3 262.6 343.2 262.6ZM334.2 262.6H330.2C330.05 262.6 329.95 262.5 329.95 262.35C329.95 262.2 330.05 262.1 330.2 262.1H334.2C334.35 262.1 334.45 262.2 334.45 262.35C334.45 262.5 334.35 262.6 334.2 262.6ZM325.2 262.6H321.2C321.05 262.6 320.95 262.5 320.95 262.35C320.95 262.2 321.05 262.1 321.2 262.1H325.2C325.35 262.1 325.45 262.2 325.45 262.35C325.45 262.5 325.35 262.6 325.2 262.6ZM316.25 262.6H312.25C312.1 262.6 312 262.5 312 262.35C312 262.2 312.1 262.1 312.25 262.1H316.25C316.4 262.1 316.5 262.2 316.5 262.35C316.5 262.5 316.4 262.6 316.25 262.6ZM307.25 262.6H303.25C303.1 262.6 303 262.5 303 262.35C303 262.2 303.1 262.1 303.25 262.1H307.25C307.4 262.1 307.5 262.2 307.5 262.35C307.5 262.5 307.4 262.6 307.25 262.6ZM298.3 262.6H294.3C294.15 262.6 294.05 262.5 294.05 262.35C294.05 262.2 294.15 262.1 294.3 262.1H298.3C298.45 262.1 298.55 262.2 298.55 262.35C298.55 262.5 298.45 262.6 298.3 262.6ZM289.3 262.6H285.3C285.15 262.6 285.05 262.5 285.05 262.35C285.05 262.2 285.15 262.1 285.3 262.1H289.3C289.45 262.1 289.55 262.2 289.55 262.35C289.55 262.5 289.45 262.6 289.3 262.6ZM280.35 262.6H276.35C276.2 262.6 276.1 262.5 276.1 262.35C276.1 262.2 276.2 262.1 276.35 262.1H280.35C280.5 262.1 280.6 262.2 280.6 262.35C280.6 262.5 280.5 262.6 280.35 262.6ZM271.35 262.6H267.35C267.2 262.6 267.1 262.5 267.1 262.35C267.1 262.2 267.2 262.1 267.35 262.1H271.35C271.5 262.1 271.6 262.2 271.6 262.35C271.6 262.5 271.5 262.6 271.35 262.6ZM262.4 262.6H258.4C258.25 262.6 258.15 262.5 258.15 262.35C258.15 262.2 258.25 262.1 258.4 262.1H262.4C262.55 262.1 262.65 262.2 262.65 262.35C262.65 262.5 262.5 262.6 262.4 262.6ZM253.4 262.6H249.4C249.25 262.6 249.15 262.5 249.15 262.35C249.15 262.2 249.25 262.1 249.4 262.1H253.4C253.55 262.1 253.65 262.2 253.65 262.35C253.65 262.5 253.55 262.6 253.4 262.6ZM244.45 262.6H240.45C240.3 262.6 240.2 262.5 240.2 262.35C240.2 262.2 240.3 262.1 240.45 262.1H244.45C244.6 262.1 244.7 262.2 244.7 262.35C244.7 262.5 244.55 262.6 244.45 262.6ZM235.45 262.6H231.45C231.3 262.6 231.2 262.5 231.2 262.35C231.2 262.2 231.3 262.1 231.45 262.1H235.45C235.6 262.1 235.7 262.2 235.7 262.35C235.7 262.5 235.6 262.6 235.45 262.6Z" fill="#7E5BFF"/>
<path d="M226.5 262.6H224.5C224.35 262.6 224.25 262.5 224.25 262.35V260.35C224.25 260.2 224.35 260.1 224.5 260.1C224.65 260.1 224.75 260.2 224.75 260.35V262.1H226.5C226.65 262.1 226.75 262.2 226.75 262.35C226.75 262.5 226.6 262.6 226.5 262.6Z" fill="#7E5BFF"/>
<path d="M224.5 255.55C224.35 255.55 224.25 255.45 224.25 255.3V251.3C224.25 251.15 224.35 251.05 224.5 251.05C224.65 251.05 224.75 251.15 224.75 251.3V255.3C224.75 255.45 224.6 255.55 224.5 255.55ZM224.5 246.5C224.35 246.5 224.25 246.4 224.25 246.25V242.25C224.25 242.1 224.35 242 224.5 242C224.65 242 224.75 242.1 224.75 242.25V246.25C224.75 246.4 224.6 246.5 224.5 246.5ZM224.5 237.5C224.35 237.5 224.25 237.4 224.25 237.25V233.25C224.25 233.1 224.35 233 224.5 233C224.65 233 224.75 233.1 224.75 233.25V237.25C224.75 237.35 224.6 237.5 224.5 237.5ZM224.5 228.45C224.35 228.45 224.25 228.35 224.25 228.2V224.2C224.25 224.05 224.35 223.95 224.5 223.95C224.65 223.95 224.75 224.05 224.75 224.2V228.2C224.75 228.35 224.6 228.45 224.5 228.45ZM224.5 219.4C224.35 219.4 224.25 219.3 224.25 219.15V215.15C224.25 215 224.35 214.9 224.5 214.9C224.65 214.9 224.75 215 224.75 215.15V219.15C224.75 219.3 224.6 219.4 224.5 219.4ZM224.5 210.35C224.35 210.35 224.25 210.25 224.25 210.1V206.1C224.25 205.95 224.35 205.85 224.5 205.85C224.65 205.85 224.75 205.95 224.75 206.1V210.1C224.75 210.25 224.6 210.35 224.5 210.35ZM224.5 201.3C224.35 201.3 224.25 201.2 224.25 201.05V197.05C224.25 196.9 224.35 196.8 224.5 196.8C224.65 196.8 224.75 196.9 224.75 197.05V201.05C224.75 201.2 224.6 201.3 224.5 201.3ZM224.5 192.3C224.35 192.3 224.25 192.2 224.25 192.05V188.05C224.25 187.9 224.35 187.8 224.5 187.8C224.65 187.8 224.75 187.9 224.75 188.05V192.05C224.75 192.15 224.6 192.3 224.5 192.3ZM224.5 183.25C224.35 183.25 224.25 183.15 224.25 183V179C224.25 178.85 224.35 178.75 224.5 178.75C224.65 178.75 224.75 178.85 224.75 179V183C224.75 183.15 224.6 183.25 224.5 183.25ZM224.5 174.2C224.35 174.2 224.25 174.1 224.25 173.95V169.95C224.25 169.8 224.35 169.7 224.5 169.7C224.65 169.7 224.75 169.8 224.75 169.95V173.95C224.75 174.1 224.6 174.2 224.5 174.2ZM224.5 165.15C224.35 165.15 224.25 165.05 224.25 164.9V160.9C224.25 160.75 224.35 160.65 224.5 160.65C224.65 160.65 224.75 160.75 224.75 160.9V164.9C224.75 165.05 224.6 165.15 224.5 165.15ZM224.5 156.15C224.35 156.15 224.25 156.05 224.25 155.9V151.9C224.25 151.75 224.35 151.65 224.5 151.65C224.65 151.65 224.75 151.75 224.75 151.9V155.9C224.75 156 224.6 156.15 224.5 156.15ZM224.5 147.1C224.35 147.1 224.25 147 224.25 146.85V142.85C224.25 142.7 224.35 142.6 224.5 142.6C224.65 142.6 224.75 142.7 224.75 142.85V146.85C224.75 147 224.6 147.1 224.5 147.1ZM224.5 138.05C224.35 138.05 224.25 137.95 224.25 137.8V133.8C224.25 133.65 224.35 133.55 224.5 133.55C224.65 133.55 224.75 133.65 224.75 133.8V137.8C224.75 137.95 224.6 138.05 224.5 138.05ZM224.5 129C224.35 129 224.25 128.9 224.25 128.75V124.75C224.25 124.6 224.35 124.5 224.5 124.5C224.65 124.5 224.75 124.6 224.75 124.75V128.75C224.75 128.9 224.6 129 224.5 129Z" fill="#7E5BFF"/>
<path d="M224.5 119.95C224.35 119.95 224.25 119.85 224.25 119.7V117.7C224.25 117.55 224.35 117.45 224.5 117.45H226.5C226.65 117.45 226.75 117.55 226.75 117.7C226.75 117.85 226.65 117.95 226.5 117.95H224.75V119.7C224.75 119.85 224.6 119.95 224.5 119.95Z" fill="#7E5BFF"/>
<path d="M415 117.95H411C410.85 117.95 410.75 117.85 410.75 117.7C410.75 117.55 410.85 117.45 411 117.45H415C415.15 117.45 415.25 117.55 415.25 117.7C415.25 117.85 415.15 117.95 415 117.95ZM406 117.95H402C401.85 117.95 401.75 117.85 401.75 117.7C401.75 117.55 401.85 117.45 402 117.45H406C406.15 117.45 406.25 117.55 406.25 117.7C406.25 117.85 406.15 117.95 406 117.95ZM397.05 117.95H393.05C392.9 117.95 392.8 117.85 392.8 117.7C392.8 117.55 392.9 117.45 393.05 117.45H397.05C397.2 117.45 397.3 117.55 397.3 117.7C397.3 117.85 397.2 117.95 397.05 117.95ZM388.05 117.95H384.05C383.9 117.95 383.8 117.85 383.8 117.7C383.8 117.55 383.9 117.45 384.05 117.45H388.05C388.2 117.45 388.3 117.55 388.3 117.7C388.3 117.85 388.2 117.95 388.05 117.95ZM379.1 117.95H375.1C374.95 117.95 374.85 117.85 374.85 117.7C374.85 117.55 374.95 117.45 375.1 117.45H379.1C379.25 117.45 379.35 117.55 379.35 117.7C379.35 117.85 379.2 117.95 379.1 117.95ZM370.1 117.95H366.1C365.95 117.95 365.85 117.85 365.85 117.7C365.85 117.55 365.95 117.45 366.1 117.45H370.1C370.25 117.45 370.35 117.55 370.35 117.7C370.35 117.85 370.25 117.95 370.1 117.95ZM361.15 117.95H357.15C357 117.95 356.9 117.85 356.9 117.7C356.9 117.55 357 117.45 357.15 117.45H361.15C361.3 117.45 361.4 117.55 361.4 117.7C361.4 117.85 361.25 117.95 361.15 117.95ZM352.15 117.95H348.15C348 117.95 347.9 117.85 347.9 117.7C347.9 117.55 348 117.45 348.15 117.45H352.15C352.3 117.45 352.4 117.55 352.4 117.7C352.4 117.85 352.3 117.95 352.15 117.95ZM343.2 117.95H339.2C339.05 117.95 338.95 117.85 338.95 117.7C338.95 117.55 339.05 117.45 339.2 117.45H343.2C343.35 117.45 343.45 117.55 343.45 117.7C343.45 117.85 343.3 117.95 343.2 117.95ZM334.2 117.95H330.2C330.05 117.95 329.95 117.85 329.95 117.7C329.95 117.55 330.05 117.45 330.2 117.45H334.2C334.35 117.45 334.45 117.55 334.45 117.7C334.45 117.85 334.35 117.95 334.2 117.95ZM325.2 117.95H321.2C321.05 117.95 320.95 117.85 320.95 117.7C320.95 117.55 321.05 117.45 321.2 117.45H325.2C325.35 117.45 325.45 117.55 325.45 117.7C325.45 117.85 325.35 117.95 325.2 117.95ZM316.25 117.95H312.25C312.1 117.95 312 117.85 312 117.7C312 117.55 312.1 117.45 312.25 117.45H316.25C316.4 117.45 316.5 117.55 316.5 117.7C316.5 117.85 316.4 117.95 316.25 117.95ZM307.25 117.95H303.25C303.1 117.95 303 117.85 303 117.7C303 117.55 303.1 117.45 303.25 117.45H307.25C307.4 117.45 307.5 117.55 307.5 117.7C307.5 117.85 307.4 117.95 307.25 117.95ZM298.3 117.95H294.3C294.15 117.95 294.05 117.85 294.05 117.7C294.05 117.55 294.15 117.45 294.3 117.45H298.3C298.45 117.45 298.55 117.55 298.55 117.7C298.55 117.85 298.45 117.95 298.3 117.95ZM289.3 117.95H285.3C285.15 117.95 285.05 117.85 285.05 117.7C285.05 117.55 285.15 117.45 285.3 117.45H289.3C289.45 117.45 289.55 117.55 289.55 117.7C289.55 117.85 289.45 117.95 289.3 117.95ZM280.35 117.95H276.35C276.2 117.95 276.1 117.85 276.1 117.7C276.1 117.55 276.2 117.45 276.35 117.45H280.35C280.5 117.45 280.6 117.55 280.6 117.7C280.6 117.85 280.5 117.95 280.35 117.95ZM271.35 117.95H267.35C267.2 117.95 267.1 117.85 267.1 117.7C267.1 117.55 267.2 117.45 267.35 117.45H271.35C271.5 117.45 271.6 117.55 271.6 117.7C271.6 117.85 271.5 117.95 271.35 117.95ZM262.4 117.95H258.4C258.25 117.95 258.15 117.85 258.15 117.7C258.15 117.55 258.25 117.45 258.4 117.45H262.4C262.55 117.45 262.65 117.55 262.65 117.7C262.65 117.85 262.5 117.95 262.4 117.95ZM253.4 117.95H249.4C249.25 117.95 249.15 117.85 249.15 117.7C249.15 117.55 249.25 117.45 249.4 117.45H253.4C253.55 117.45 253.65 117.55 253.65 117.7C253.65 117.85 253.55 117.95 253.4 117.95ZM244.45 117.95H240.45C240.3 117.95 240.2 117.85 240.2 117.7C240.2 117.55 240.3 117.45 240.45 117.45H244.45C244.6 117.45 244.7 117.55 244.7 117.7C244.7 117.85 244.55 117.95 244.45 117.95ZM235.45 117.95H231.45C231.3 117.95 231.2 117.85 231.2 117.7C231.2 117.55 231.3 117.45 231.45 117.45H235.45C235.6 117.45 235.7 117.55 235.7 117.7C235.7 117.85 235.6 117.95 235.45 117.95Z" fill="#7E5BFF"/>
<path d="M422 119.95C421.85 119.95 421.75 119.85 421.75 119.7V117.95H420C419.85 117.95 419.75 117.85 419.75 117.7C419.75 117.55 419.85 117.45 420 117.45H422C422.15 117.45 422.25 117.55 422.25 117.7V119.7C422.25 119.85 422.1 119.95 422 119.95Z" fill="#7E5BFF"/>
<path d="M422 255.55C421.85 255.55 421.75 255.45 421.75 255.3V251.3C421.75 251.15 421.85 251.05 422 251.05C422.15 251.05 422.25 251.15 422.25 251.3V255.3C422.25 255.45 422.1 255.55 422 255.55ZM422 246.5C421.85 246.5 421.75 246.4 421.75 246.25V242.25C421.75 242.1 421.85 242 422 242C422.15 242 422.25 242.1 422.25 242.25V246.25C422.25 246.4 422.1 246.5 422 246.5ZM422 237.5C421.85 237.5 421.75 237.4 421.75 237.25V233.25C421.75 233.1 421.85 233 422 233C422.15 233 422.25 233.1 422.25 233.25V237.25C422.25 237.35 422.1 237.5 422 237.5ZM422 228.45C421.85 228.45 421.75 228.35 421.75 228.2V224.2C421.75 224.05 421.85 223.95 422 223.95C422.15 223.95 422.25 224.05 422.25 224.2V228.2C422.25 228.35 422.1 228.45 422 228.45ZM422 219.4C421.85 219.4 421.75 219.3 421.75 219.15V215.15C421.75 215 421.85 214.9 422 214.9C422.15 214.9 422.25 215 422.25 215.15V219.15C422.25 219.3 422.1 219.4 422 219.4ZM422 210.35C421.85 210.35 421.75 210.25 421.75 210.1V206.1C421.75 205.95 421.85 205.85 422 205.85C422.15 205.85 422.25 205.95 422.25 206.1V210.1C422.25 210.25 422.1 210.35 422 210.35ZM422 201.3C421.85 201.3 421.75 201.2 421.75 201.05V197.05C421.75 196.9 421.85 196.8 422 196.8C422.15 196.8 422.25 196.9 422.25 197.05V201.05C422.25 201.2 422.1 201.3 422 201.3ZM422 192.3C421.85 192.3 421.75 192.2 421.75 192.05V188.05C421.75 187.9 421.85 187.8 422 187.8C422.15 187.8 422.25 187.9 422.25 188.05V192.05C422.25 192.15 422.1 192.3 422 192.3ZM422 183.25C421.85 183.25 421.75 183.15 421.75 183V179C421.75 178.85 421.85 178.75 422 178.75C422.15 178.75 422.25 178.85 422.25 179V183C422.25 183.15 422.1 183.25 422 183.25ZM422 174.2C421.85 174.2 421.75 174.1 421.75 173.95V169.95C421.75 169.8 421.85 169.7 422 169.7C422.15 169.7 422.25 169.8 422.25 169.95V173.95C422.25 174.1 422.1 174.2 422 174.2ZM422 165.15C421.85 165.15 421.75 165.05 421.75 164.9V160.9C421.75 160.75 421.85 160.65 422 160.65C422.15 160.65 422.25 160.75 422.25 160.9V164.9C422.25 165.05 422.1 165.15 422 165.15ZM422 156.15C421.85 156.15 421.75 156.05 421.75 155.9V151.9C421.75 151.75 421.85 151.65 422 151.65C422.15 151.65 422.25 151.75 422.25 151.9V155.9C422.25 156 422.1 156.15 422 156.15ZM422 147.1C421.85 147.1 421.75 147 421.75 146.85V142.85C421.75 142.7 421.85 142.6 422 142.6C422.15 142.6 422.25 142.7 422.25 142.85V146.85C422.25 147 422.1 147.1 422 147.1ZM422 138.05C421.85 138.05 421.75 137.95 421.75 137.8V133.8C421.75 133.65 421.85 133.55 422 133.55C422.15 133.55 422.25 133.65 422.25 133.8V137.8C422.25 137.95 422.1 138.05 422 138.05ZM422 129C421.85 129 421.75 128.9 421.75 128.75V124.75C421.75 124.6 421.85 124.5 422 124.5C422.15 124.5 422.25 124.6 422.25 124.75V128.75C422.25 128.9 422.1 129 422 129Z" fill="#7E5BFF"/>
<path d="M219.65 112.9H229.25V122.5H219.65V112.9Z" fill="#B4A5F9"/>
<path d="M219.65 257.5H229.25V267.1H219.65V257.5Z" fill="#B4A5F9"/>
<path d="M318.4 112.9H328V122.5H318.4V112.9Z" fill="#B4A5F9"/>
<path d="M318.4 257.5H328V267.1H318.4V257.5Z" fill="#B4A5F9"/>
<path d="M417.2 112.9H426.8V122.5H417.2V112.9Z" fill="#B4A5F9"/>
<path d="M417.2 257.5H426.8V267.1H417.2V257.5Z" fill="#B4A5F9"/>
<path d="M219.65 185.2H229.25V194.8H219.65V185.2Z" fill="#B4A5F9"/>
<path d="M419 185.2H428.6V194.8H419V185.2Z" fill="#B4A5F9"/>
<path d="M605.35 212.45C605.35 224.146 600.704 235.363 592.433 243.633C584.163 251.904 572.946 256.55 561.25 256.55C549.554 256.55 538.337 251.904 530.067 243.633C521.796 235.363 517.15 224.146 517.15 212.45C517.15 200.754 521.796 189.537 530.067 181.267C538.337 172.996 549.554 168.35 561.25 168.35C572.946 168.35 584.163 172.996 592.433 181.267C600.704 189.537 605.35 200.754 605.35 212.45Z" fill="#F4F4F4"/>
<path d="M601.6 212.45C601.6 223.151 597.349 233.415 589.782 240.982C582.215 248.549 571.951 252.8 561.25 252.8C550.549 252.8 540.285 248.549 532.718 240.982C525.151 233.415 520.9 223.151 520.9 212.45C520.9 201.749 525.151 191.485 532.718 183.918C540.285 176.351 550.549 172.1 561.25 172.1C571.951 172.1 582.215 176.351 589.782 183.918C597.349 191.485 601.6 201.749 601.6 212.45Z" fill="#7E5BFF"/>
<path d="M521 214.85C521.05 215.3 521.05 215.75 521.1 216.2C521.1 216.4 521.15 216.55 521.15 216.75C521.2 217.35 521.3 217.95 521.35 218.5C521.35 218.6 521.4 218.7 521.4 218.85C521.5 219.35 521.55 219.8 521.65 220.25C521.7 220.45 521.75 220.7 521.8 220.9C521.9 221.3 521.95 221.65 522.05 222C522.1 222.2 522.15 222.45 522.2 222.65C522.35 223.2 522.5 223.7 522.65 224.2C522.7 224.45 522.8 224.65 522.85 224.9C522.95 225.2 523.05 225.55 523.15 225.85C523.25 226.1 523.35 226.4 523.45 226.65C523.55 226.9 523.65 227.2 523.75 227.45C523.85 227.7 523.95 228 524.1 228.25C524.25 228.6 524.4 228.95 524.6 229.3C524.8 229.7 524.95 230.05 525.15 230.45C525.25 230.65 525.35 230.85 525.45 231.05C525.6 231.35 525.75 231.65 525.95 231.95C526.05 232.15 526.15 232.3 526.25 232.5C526.65 233.2 527.1 233.9 527.55 234.6L561.15 212.3V171.95C538.85 171.95 520.8 190 520.8 212.3C520.8 212.9 520.8 213.55 520.85 214.15C521 214.5 521 214.7 521 214.85Z" fill="#B92BF1"/>
<path d="M594.9 234.75C599.15 228.35 601.6 220.7 601.6 212.45C601.6 190.15 583.55 172.1 561.25 172.1V212.45L594.9 234.75Z" fill="#E31C8F"/>
<path d="M561.25 227.95C552.7 227.95 545.75 221 545.75 212.45C545.75 203.9 552.7 196.95 561.25 196.95C569.8 196.95 576.75 203.9 576.75 212.45C576.75 221 569.8 227.95 561.25 227.95ZM561.25 199.5C554.1 199.5 548.3 205.3 548.3 212.45C548.3 219.6 554.1 225.4 561.25 225.4C568.4 225.4 574.2 219.6 574.2 212.45C574.2 205.3 568.4 199.5 561.25 199.5Z" fill="#F4F4F4"/>
<path d="M196.6 303.35H447.35V355.15H196.6V303.35Z" fill="#7B64E7" fill-opacity="0.3"/>
<path d="M196.6 303.35H447.35V316.3H196.6V303.35Z" fill="#7B64E7" fill-opacity="0.5"/>
<path d="M420.35 310.15C420.35 310.641 420.155 311.111 419.808 311.458C419.461 311.805 418.991 312 418.5 312C418.009 312 417.539 311.805 417.192 311.458C416.845 311.111 416.65 310.641 416.65 310.15C416.65 309.659 416.845 309.189 417.192 308.842C417.539 308.495 418.009 308.3 418.5 308.3C418.991 308.3 419.461 308.495 419.808 308.842C420.155 309.189 420.35 309.659 420.35 310.15Z" fill="#F4F4F4"/>
<path d="M428.3 310.15C428.3 310.641 428.105 311.111 427.758 311.458C427.411 311.805 426.941 312 426.45 312C425.959 312 425.489 311.805 425.142 311.458C424.795 311.111 424.6 310.641 424.6 310.15C424.6 309.659 424.795 309.189 425.142 308.842C425.489 308.495 425.959 308.3 426.45 308.3C426.941 308.3 427.411 308.495 427.758 308.842C428.105 309.189 428.3 309.659 428.3 310.15Z" fill="#F4F4F4"/>
<path d="M436.2 310.15C436.2 310.641 436.005 311.111 435.658 311.458C435.311 311.805 434.841 312 434.35 312C434.107 312 433.866 311.952 433.642 311.859C433.418 311.766 433.214 311.63 433.042 311.458C432.87 311.286 432.734 311.082 432.641 310.858C432.548 310.634 432.5 310.393 432.5 310.15C432.5 309.907 432.548 309.666 432.641 309.442C432.734 309.218 432.87 309.014 433.042 308.842C433.214 308.67 433.418 308.534 433.642 308.441C433.866 308.348 434.107 308.3 434.35 308.3C434.841 308.3 435.311 308.495 435.658 308.842C436.005 309.189 436.2 309.659 436.2 310.15Z" fill="#F4F4F4"/>
<path d="M206.95 324.15H436.95V333.25H206.95V324.15Z" fill="#9F1464"/>
<path d="M206.95 338.75H437V347.85H206.95V338.75Z" fill="#2E189B"/>
<path d="M276 324.15H276.7V333.25H276V324.15Z" fill="#F4F4F4"/>
<path d="M278.55 324.15H279.25V333.25H278.55V324.15Z" fill="#F4F4F4"/>
<path d="M310.45 338.75H311.15V347.85H310.45V338.75Z" fill="#F4F4F4"/>
<path d="M321.6 338.75H322.3V347.85H321.6V338.75Z" fill="#F4F4F4"/>
<path d="M421.3 324.15H422V333.25H421.3V324.15Z" fill="#F4F4F4"/>
<path d="M417.35 324.15H418.05V333.25H417.35V324.15Z" fill="#F4F4F4"/>
<path d="M428.3 338.75H429V347.85H428.3V338.75Z" fill="#F4F4F4"/>
<path d="M426.1 338.75H426.8V347.85H426.1V338.75Z" fill="#F4F4F4"/>
<path d="M324.7 338.75H325.4V347.85H324.7V338.75Z" fill="#F4F4F4"/>
<path d="M55.65 83.95H172.65V159.7H55.65V83.95Z" fill="#7B64E7" fill-opacity="0.3"/>
<path d="M56.65 83.95H173.65V96.6H56.65V83.95Z" fill="#7B64E7" fill-opacity="0.5"/>
<path d="M152.95 90.35C152.95 90.708 152.808 91.0514 152.555 91.3046C152.301 91.5578 151.958 91.7 151.6 91.7C151.242 91.7 150.899 91.5578 150.645 91.3046C150.392 91.0514 150.25 90.708 150.25 90.35C150.25 89.992 150.392 89.6486 150.645 89.3954C150.899 89.1422 151.242 89 151.6 89C151.958 89 152.301 89.1422 152.555 89.3954C152.808 89.6486 152.95 89.992 152.95 90.35Z" fill="#F4F4F4"/>
<path d="M159.25 90.35C159.25 90.5273 159.215 90.7028 159.147 90.8666C159.079 91.0304 158.98 91.1792 158.855 91.3046C158.729 91.43 158.58 91.5294 158.417 91.5972C158.253 91.6651 158.077 91.7 157.9 91.7C157.542 91.7 157.199 91.5578 156.945 91.3046C156.692 91.0514 156.55 90.708 156.55 90.35C156.55 89.992 156.692 89.6486 156.945 89.3954C157.199 89.1422 157.542 89 157.9 89C158.077 89 158.253 89.0349 158.417 89.1028C158.58 89.1706 158.729 89.2701 158.855 89.3954C158.98 89.5208 159.079 89.6696 159.147 89.8334C159.215 89.9972 159.25 90.1727 159.25 90.35Z" fill="#F4F4F4"/>
<path d="M165.6 90.35C165.6 90.708 165.458 91.0514 165.205 91.3046C164.951 91.5578 164.608 91.7 164.25 91.7C164.073 91.7 163.897 91.6651 163.733 91.5972C163.57 91.5294 163.421 91.43 163.295 91.3046C163.17 91.1792 163.071 91.0304 163.003 90.8666C162.935 90.7028 162.9 90.5273 162.9 90.35C162.9 90.1727 162.935 89.9972 163.003 89.8334C163.071 89.6696 163.17 89.5208 163.295 89.3954C163.421 89.2701 163.57 89.1706 163.733 89.1028C163.897 89.0349 164.073 89 164.25 89C164.608 89 164.951 89.1422 165.205 89.3954C165.458 89.6486 165.6 89.992 165.6 90.35Z" fill="#F4F4F4"/>
<path d="M66.75 108.5H79.75V121.5H66.75V108.5Z" fill="#EB60B1" fill-opacity="0.51"/>
<path d="M87.2001 108.5H100.2V121.5H87.2001V108.5Z" fill="#F4F4F4"/>
<path d="M107.7 108.5H120.7V121.5H107.7V108.5Z" fill="#EB60B1" fill-opacity="0.5"/>
<path d="M128.15 108.5H141.15V121.5H128.15V108.5Z" fill="#F4F4F4"/>
<path d="M147.733 108.5H160.733V121.5H147.733V108.5Z" fill="#EB60B1" fill-opacity="0.5"/>
<path d="M66.75 127.85H79.75V140.85H66.75V127.85Z" fill="#F4F4F4"/>
<path d="M87.2001 127.85H100.2V140.85H87.2001V127.85Z" fill="#EB60B1" fill-opacity="0.5"/>
<path d="M107.7 127.85H120.7V140.85H107.7V127.85Z" fill="#F4F4F4"/>
<path d="M128.15 127.85H141.15V140.85H128.15V127.85Z" fill="#F4F4F4"/>
<path d="M148.6 127.85H161.6V140.85H148.6V127.85Z" fill="#F4F4F4"/>
<path d="M490.4 195.1C490.4 195.1 492.75 206.6 490.4 207.35C488.05 208.15 478.4 202.65 465.9 202.65C453.4 202.65 425.45 196.9 423.65 195.1C421.8 193.25 402.5 153.9 398.6 146.6C394.7 139.3 399.65 124.4 392.1 124.95C384.55 125.45 376.45 132.8 384 142.95C391.55 153.1 396.8 169.55 401.75 184.95C406.7 200.35 410.35 209.45 418.2 213.9C426.05 218.35 467.25 225.1 469.6 233.2C471.95 241.3 465.15 250.7 469.35 261.1C473.5 271.55 490.1 281.45 487.35 306.25C485.15 325.95 481.25 410.6 479.35 445.55C477.45 480.5 477.95 552.5 474.45 559.55C470.95 566.6 456.85 571.7 447.45 573.65C438.05 575.6 427.5 581.1 433.75 583.45C440 585.8 488.25 586.7 491.55 583.45C494.85 580.2 499.5 577.2 494.05 563.5C488.55 549.8 503.45 509.9 504.2 488.35C504.95 466.8 506.05 456.9 507.2 445.55C508.35 434.2 517.65 367.8 523.9 365.45C530.15 363.1 538.65 438.25 543.35 448C548.05 457.75 591.5 527.85 594.2 536.45C596.95 545.05 599.3 564.25 594.2 567.75C589.1 571.25 573.05 584.1 584.05 585.5C595 586.9 609.1 579.85 614.95 567.75C620.8 555.6 629.45 541.15 619.25 538.4C609.1 535.65 608.3 534.9 598.1 510.6C587.9 486.3 575 451.9 566.8 440.15C558.6 428.4 567.95 397.5 564.85 366.6C561.75 335.7 543.7 320.4 537.85 305.55C532 290.7 541 228.05 539.8 223C538.65 217.9 507.3 208.5 507.3 208.5L504.15 187L490.4 195.1Z" fill="#62503B"/>
<path d="M539.75 223C539.75 223 551.25 229.8 561.15 243.85C571.05 257.9 588.3 276.45 589.35 283.75C590.4 291.05 565.6 333.05 559.6 337.75C553.6 342.45 547.85 337.75 547.85 337.75C547.85 337.75 572.9 294.2 571.05 285.55C569.2 276.95 532.2 248.5 532.2 248.5L539.75 223Z" fill="#62503B"/>
<path d="M564.6 365.25C564.5 364.2 564.35 363.15 564.2 362.15C564.2 362.05 564.2 362 564.15 361.9C563.9 359.5 563.4 357.25 562.8 355.15C557.1 331.7 542.85 318.5 537.75 305.55C537.3 304.4 536.9 302.9 536.65 301.2C522.25 304.5 502.15 303.15 487.6 301.4C487.6 301.4 482 356.7 471.25 396.15C468.3 406.9 459.15 426.95 459.15 426.95C459.15 426.95 476.75 442.75 490.05 439.65C503.35 436.5 511.9 434.15 519.7 439.65C527.55 445.15 547.85 439.45 550.2 436.3C552.55 433.15 562.9 428.75 572.7 434.6C582.5 440.45 587.9 430.7 587.9 430.7C587.9 430.7 569.05 394.3 564.6 365.25Z" fill="#7B64E7"/>
<path d="M459.1 577.55C453.1 578.05 451.35 575.5 451.1 572.75C449.8 573.1 448.55 573.4 447.35 573.65C437.95 575.6 427.4 581.1 433.65 583.45C439.9 585.8 488.2 586.7 491.45 583.45C494.55 580.35 498.85 577.55 494.75 565.7C493.15 565.9 491.35 566.3 489.35 566.85C478.7 569.95 471.4 576.5 459.1 577.55Z" fill="#9F1464"/>
<path d="M619.15 538.4C616.4 537.65 614.35 537.05 612.6 536.1C611.8 540.65 610.35 548.35 608.3 555.6C605.15 566.8 600.3 572.2 590.45 570.45C584.05 575.55 574.9 584.35 583.9 585.5C594.85 586.9 608.95 579.85 614.8 567.75C620.75 555.6 629.35 541.15 619.15 538.4Z" fill="#9F1464"/>
<path d="M571.05 285.6C571.75 288.9 568.5 297.3 564.25 306.45C567.35 309 571.75 311.55 577.15 311.6C583.95 299.65 589.8 287.4 589.3 283.75C588.25 276.45 571.05 257.9 561.1 243.85C551.2 229.75 538.3 221.15 538.3 221.15L532.15 248.55C532.15 248.55 569.2 277 571.05 285.6Z" fill="#EB60B1"/>
<path d="M401.7 184.9C406.65 200.3 410.3 209.4 418.15 213.85C422.7 216.4 438.45 219.8 451.35 223.7L465.25 202.6C452.45 202.4 425.45 196.85 423.65 195.05C421.8 193.2 402.5 153.85 398.6 146.55C394.7 139.25 399.65 124.35 392.1 124.9C384.55 125.4 376.45 132.75 384 142.9C391.55 153.1 396.75 169.5 401.7 184.9Z" fill="#62503B"/>
<path d="M539.75 223C538.9 219.3 522.1 213.35 513 210.35C512.95 210.35 512.9 210.3 512.85 210.3C512.75 210.25 512.65 210.25 512.5 210.2C512.3 210.15 512.15 210.1 511.95 210C511.8 209.95 511.65 209.9 511.5 209.85C511.35 209.8 511.15 209.75 511 209.7C510.9 209.65 510.8 209.65 510.7 209.6C510.5 209.55 510.3 209.45 510.1 209.4C510.05 209.4 509.95 209.35 509.9 209.35C509.75 209.3 509.6 209.25 509.45 209.2C509.4 209.2 509.4 209.2 509.35 209.15C508 208.75 507.2 208.5 507.2 208.5L505.2 194.7C503.3 194.75 495.55 194.95 490.4 195.2C490.65 196.5 492.55 206.6 490.35 207.3C489.75 207.5 488.75 207.3 487.35 206.9C487.25 206.85 487.1 206.85 486.95 206.8C486.75 206.75 486.55 206.7 486.35 206.6C486.15 206.55 485.9 206.45 485.65 206.4C485.55 206.35 485.5 206.35 485.4 206.3C484.4 206 483.25 205.65 482.05 205.25C482 205.25 482 205.25 481.95 205.2C477.65 203.9 472.1 202.55 465.85 202.55C453.35 202.55 425.4 196.8 423.6 195C422.55 193.95 415.75 180.55 409.4 167.95C405.2 170.35 400.85 171.8 397.65 172.6C399.05 176.65 400.35 180.75 401.65 184.8C406.6 200.2 410.25 209.3 418.1 213.75C425.95 218.2 467.15 224.95 469.5 233.05C471.85 241.15 465.05 250.55 469.25 260.95C473.4 271.4 490 281.3 487.25 306.1C487.2 306.6 487.15 307.15 487.1 307.7C507.4 312.75 527.05 308.6 537.7 305.3C531.95 290.3 540.9 228.05 539.75 223Z" fill="#EB60B1"/>
<path d="M509.2 156.55C504.85 154.15 499.65 153.9 495.1 155.85C491.95 157.2 488.55 159.35 486.35 162.7C481.35 170.35 475.95 192.1 481.95 195.7C492.3 201.85 503.7 199.35 510.75 190.55C516.95 182.7 526.75 166.25 509.2 156.55Z" fill="#62503B"/>
<path d="M529.6 195.85C527.45 193.2 525.7 190.25 524.4 187.15C524.4 186.7 524.4 186.25 524.4 185.8C524.4 180.05 525.35 174.4 523.45 168.85C520.15 159.1 511.1 152.9 501.1 152.65C498.15 152.8 497.2 153.2 497.2 153.2C495.05 153.8 493.05 154.9 491.4 156.45C485.55 161 483.25 168.95 486.3 176.05C488.95 182.3 496.15 188.8 497.3 195.9C497.25 196.2 497.25 196.5 497.15 196.8C496.1 202.55 492.45 207.35 490.1 212.65C488.95 215.25 488.3 217.9 488.15 220.45C488.1 221.25 488.05 222.05 487.95 222.8C486.95 230.15 490.75 237.6 497.25 241.55C501.35 244 506.25 245.2 511 244.9C514.7 244.7 516.85 242.7 517.65 239.8C518.7 238.55 519.25 236.9 519.05 234.95C518.8 232.45 517.45 230.25 517.3 227.75C517.05 223.25 521.75 223.15 525.05 222.35C526.85 222.45 528.65 222.35 530.4 221.65C535 219.75 537.75 215 537.6 210.05C537.4 204 533.2 200.2 529.6 195.85ZM485.95 166.5C486.3 164.6 487 162.8 488 161.25C485.05 168 487.65 175.4 491.75 181.3C494.4 185.15 497.05 188.9 497.35 193.45C495.85 188.95 492.5 184.75 489.95 181C487 176.6 484.95 171.85 485.95 166.5ZM515.1 242.75C513.3 244.3 510.55 244.2 508.3 244.1C504.15 243.85 500.05 242.55 496.65 240.2C491.9 236.95 488.9 231.6 488.6 226C489.2 228.7 490.35 231.25 492 233.7C492 233.8 492.05 233.9 492.15 234C492.5 234.45 492.85 234.9 493.25 235.35C493.35 235.45 493.4 235.55 493.45 235.65C493.5 235.7 493.55 235.75 493.65 235.8C498.6 241.05 507.3 244.1 514.2 242C515.1 241.7 515.95 241.3 516.65 240.8C516.25 241.55 515.8 242.2 515.1 242.75ZM533.65 218.5C531.85 220.35 529.75 221.25 527.4 221.5C534.6 218.15 536.95 208.75 532.2 202.2C530.75 200.2 528.75 198.6 527.3 196.55C525.7 194.4 524.95 191.95 524.6 189.4C525.2 190.65 525.9 191.9 526.65 193.05C530.15 198.45 536.15 202.5 536.75 209.35C537.05 212.75 536 216.1 533.65 218.5Z" fill="#333333"/>
<path d="M547.1 419.2C553.5 416.15 560.4 417.2 567.05 418.75C572.25 420 578 421.4 583.55 421.5C583 420.3 582.45 419.05 581.85 417.75C573.75 417.2 564.9 413.6 557.65 413.3C551.5 413.05 546.3 414.95 541.05 418.05C535.25 421.45 529.7 424.95 522.95 421.65C518.15 419.3 514.15 415.4 508.9 413.95C502.65 412.25 496.6 414.65 490.5 415.65C482 417.1 473.2 415.1 466.05 410.5C465.55 411.75 465.05 412.95 464.5 414.15C468.2 416.5 472.35 418.2 476.7 419.15C481.15 420.1 485.75 420.3 490.25 419.65C496.35 418.75 502.75 415.9 508.9 418.05C513.65 419.75 517.4 423.45 521.95 425.45C526.05 427.25 530.3 427.4 534.55 425.85C539.05 424.2 542.85 421.2 547.1 419.2Z" fill="#4222DD"/>
<path d="M488.45 410.45C494.9 409.85 501.35 408.3 507.85 408.85C511.35 409.15 514.65 410.15 517.6 412.1C519.95 413.65 522.05 415.5 524.75 416.45C530.55 418.4 536.05 415.35 540.95 412.55C548.1 408.45 554.55 408.35 562.5 409.55C567.55 410.3 573.35 411.05 578.6 410.2C578.1 409.05 577.65 407.85 577.15 406.65C570.7 407.4 563.15 405.45 557.35 404.95C552.25 404.5 547.25 404.95 542.6 407.2C536.8 410 530.75 415.6 524.1 411.85C519.8 409.45 516.6 406.5 511.6 405.5C506.65 404.5 501.6 404.9 496.65 405.55C488.4 406.65 475.8 408.7 469.45 402C469 403.2 468.55 404.5 468.05 405.75C473.4 410.1 481.35 411.1 488.45 410.45Z" fill="#4222DD"/>
<path d="M481.606 584.11L482.61 581.098L481.606 584.11Z" fill="#EB60B1"/>
<path d="M102.45 312.3C102.45 312.3 93.85 337.7 96.3 361C98.75 384.3 105.8 434.5 105.2 447.05C104.6 459.6 101.1 516.55 100.55 534.35C100 552.1 101.2 545.4 98.15 555.5C95.1 565.6 90.5 577.25 98.15 579.1C105.8 580.95 160.95 582.15 162.75 575.75C164.6 569.3 127.85 569.3 124.75 546.95C121.7 524.6 136.1 470.1 137.6 446.5C139.15 422.9 144.05 365.95 144.05 365.95L102.45 312.3Z" fill="#CDC3A1"/>
<path d="M98.15 579.05C105.8 580.9 160.95 582.1 162.75 575.7C164.6 569.25 127.85 569.25 124.75 546.9C124.65 546.15 124.55 545.35 124.5 544.5L100.35 542.5C100.3 550.05 100.55 547.4 98.15 555.45C95.05 565.55 90.45 577.2 98.15 579.05Z" fill="#303075"/>
<path d="M131.75 542.3C131.9 539.45 131.85 536.55 131.6 533.7C129.95 510.35 138.9 468.7 140.35 446.4C141.9 422.8 144.05 365.9 144.05 365.9L102.45 312.3C102.45 312.3 93.85 337.75 96.3 361C98.75 384.3 103.9 433.85 103.25 446.4C102.6 458.95 99.8 512.15 97.75 529.8C96.95 536.95 96.8 543.7 96.75 545.65C102.4 547.6 121.95 551 131.45 548C131.5 547.9 131.65 545.05 131.75 542.3Z" fill="#4222DD"/>
<path d="M146.5 164.95C146.5 164.95 143.75 175.35 144.05 180.25C144.35 185.15 222.75 195.85 222.75 195.85C222.75 195.85 246.65 169.8 251.25 160.65C255.85 151.45 256.75 140.75 260.75 135.55C264.75 130.35 269.95 122.05 272.4 128.2C274.85 134.35 274.85 153.95 269.05 158.2C263.25 162.5 246.1 214.25 235.35 219.15C224.65 224.05 182.65 219.65 179.8 224.55C176.95 229.45 171.65 314.8 175.3 331.15C179 347.5 210 422.6 210.4 434.45C210.8 446.3 171.45 532.8 168.75 542.65C166.45 550.95 177.75 566.35 182.25 567.95C186.75 569.6 201.85 575.7 198.6 581C195.35 586.3 172.25 584.9 164.7 581C157.15 577.1 152.6 569.95 144.05 567.75C135.5 565.5 132.45 546.55 149.2 533.1C160.2 524.25 172.15 444.9 172.45 438.9C172.85 431.9 113.25 379.7 104.55 326.9C98.55 290.55 96.5 237.55 96.5 237.55L94.45 197.55C94.45 197.55 116.1 187.75 118.95 180C121.8 172.25 125.45 153.75 125.45 153.75L146.5 164.95Z" fill="#CDC3A1"/>
<path d="M260.75 135.55C256.75 140.75 255.85 151.5 251.25 160.65C246.65 169.85 222.75 195.85 222.75 195.85C222.75 195.85 211.85 194.35 198.15 192.25L194.45 222C208.5 221.6 228.4 222.3 235.3 219.15C246 214.25 263.15 162.5 269 158.2C274.8 153.9 274.8 134.3 272.35 128.2C269.95 122.1 264.75 130.35 260.75 135.55Z" fill="#CDC3A1"/>
<path d="M94.45 197.65C94.45 197.65 87.3 198.65 82.4 212.35C77.5 226.05 68.1 286.05 70.75 290.95C73.4 295.85 119.75 299.3 119.75 299.3L94.45 197.65Z" fill="#CDC3A1"/>
<path d="M94.45 197.65C94.45 197.65 87.3 198.65 82.4 212.35C77.5 226.05 68.1 286.05 70.75 290.95C73.4 295.85 119.75 299.3 119.75 299.3L94.45 197.65Z" fill="#9F1464"/>
<path d="M127.8 119.05C127.8 119.05 145.95 113.45 154.5 133.05C155 134.2 155.45 135.3 155.85 136.4C157.85 139.05 163.9 147.2 163.3 148C162.7 148.8 160.35 149.8 159.6 150.05C161.1 160.1 159.1 166.55 156.85 167.9C153.55 169.95 126.2 174.95 116.45 155.3C106.7 135.7 110.55 124 127.8 119.05Z" fill="#CDC3A1"/>
<path d="M121.35 120.5C126.35 116.75 129.2 115.85 135.4 114.8C137.05 114.5 138.65 114.4 140.25 114.5C141.1 114.55 142 114.3 142.65 113.7C144.65 111.9 146.8 110.35 149.8 111.6C149.8 111.6 154.25 118.6 152.4 121.75C152.25 122 152.15 122.25 152.1 122.55C151.25 126.15 149.75 124.95 146.5 126.05C144 126.9 141.9 127.95 140.55 130.35C139.25 132.55 138.5 135.2 137.85 137.7C136.45 143 137 148.7 141.9 151.95C144.05 153.4 146.75 153.9 149.35 153.55C151.95 153.2 153.95 151.5 156.45 150.8C158.2 150.3 159.55 149.8 160.35 151.55C161.3 153.75 161.05 155.1 160.65 157.15C160.1 160 159.85 162.8 159.1 165.6C158.55 167.5 158.4 168.05 156.6 169.15C154.5 170.45 152.25 170.75 150.05 170.2C147.4 169.55 145.95 169.85 143.45 168.8C139.1 166.95 135.15 164.15 132.7 160C131.15 157.35 130.35 154.45 129.2 151.65C128.8 150.75 128.3 149.3 127.2 149.05C125.7 148.65 124.9 150.8 124.75 151.95C124 157 127.2 162.5 123.3 166.9C122.55 167.75 120.8 167.7 120.7 166.3C120.05 159.8 114.55 155.5 112.5 149.7C110.5 144.1 109.15 137.55 111.35 132.05C113.65 126.45 116.65 124 121.35 120.5Z" fill="#312E20"/>
<path d="M235.9 181C229.1 188.95 222.75 195.9 222.75 195.9C222.75 195.9 162.15 187.6 147.3 182.3C148.75 181.35 149.75 179.85 149.75 177.85C149.75 175.1 147.2 172.05 144.25 172.35C136.45 173.15 128.85 172.5 121.35 170.25C114.55 168.2 111.65 178.85 118.4 180.9C118.45 180.9 118.5 180.95 118.55 180.95C114.6 188.55 94.4 197.7 94.4 197.7L96.45 237.7C96.45 237.7 98.3 284.4 103.45 320.2H174.2C173.1 291.8 177.3 228.85 179.75 224.65C182.6 219.75 224.55 224.15 235.3 219.25C239.8 217.2 245.45 206.85 250.9 195.25C243.65 191.5 238.45 184.85 235.9 181Z" fill="#9F1464"/>
<path d="M182.25 568C177.75 566.35 166.5 551 168.75 542.7C169.3 540.75 171.25 535.85 174 529.15L155.45 522.05L155.05 522.45C153.1 527.75 151.1 531.6 149.1 533.15C132.35 546.65 135.4 565.55 143.95 567.8C152.5 570.05 157.05 577.2 164.6 581.05C172.15 584.95 195.25 586.35 198.5 581.05C201.85 575.75 186.75 569.65 182.25 568Z" fill="#303075"/>
<path d="M174.05 312.3C144.25 320.35 102.45 312.3 102.45 312.3C103.1 317.4 103.8 322.35 104.55 327C113.25 379.8 171.35 431.65 170.95 438.65C170.6 444.5 153.45 518.05 142.6 529.25C148 535.4 169.15 546.25 174.5 548.05C174.55 547.6 178.7 536.55 178.8 536.1C181.5 526.25 210.85 446.35 210.45 434.55C210.05 422.7 179 347.55 175.35 331.25C174.5 327.6 174.15 320.8 174.05 312.3Z" fill="#4222DD"/>
<path d="M30.1 36.2H623.85V57H30.1V36.2Z" fill="#2E189B"/>
<path d="M581.7 46.65C581.7 47.4987 581.363 48.3126 580.763 48.9127C580.163 49.5128 579.349 49.85 578.5 49.85C577.651 49.85 576.837 49.5128 576.237 48.9127C575.637 48.3126 575.3 47.4987 575.3 46.65C575.3 45.8013 575.637 44.9874 576.237 44.3872C576.837 43.7871 577.651 43.45 578.5 43.45C579.349 43.45 580.163 43.7871 580.763 44.3872C581.363 44.9874 581.7 45.8013 581.7 46.65Z" fill="#E31CBF"/>
<path d="M596.75 46.65C596.75 47.4987 596.413 48.3126 595.813 48.9127C595.213 49.5128 594.399 49.85 593.55 49.85C593.13 49.85 592.714 49.7672 592.325 49.6064C591.937 49.4456 591.584 49.2099 591.287 48.9127C590.99 48.6156 590.754 48.2628 590.594 47.8746C590.433 47.4863 590.35 47.0702 590.35 46.65C590.35 46.2297 590.433 45.8136 590.594 45.4254C590.754 45.0371 590.99 44.6844 591.287 44.3872C591.584 44.0901 591.937 43.8544 592.325 43.6936C592.714 43.5327 593.13 43.45 593.55 43.45C594.399 43.45 595.213 43.7871 595.813 44.3872C596.413 44.9874 596.75 45.8013 596.75 46.65Z" fill="#EB60B1"/>
<path d="M611.8 46.65C611.8 47.4987 611.463 48.3126 610.863 48.9127C610.263 49.5128 609.449 49.85 608.6 49.85C607.751 49.85 606.937 49.5128 606.337 48.9127C605.737 48.3126 605.4 47.4987 605.4 46.65C605.4 45.8013 605.737 44.9874 606.337 44.3872C606.937 43.7871 607.751 43.45 608.6 43.45C609.449 43.45 610.263 43.7871 610.863 44.3872C611.463 44.9874 611.8 45.8013 611.8 46.65Z" fill="#7B64E7"/>
</svg>
