{
  "modalHeading1": "Sign up!",
  "modalText1": "With just one step, create yourself or to your company a profile.",
  "modalHeading2": "Like and get a match!",
  "modalText2": "Browse through interesting job openings or candidate profiles. Like and get matches. Start chatting with your matches and create personal contact.",
  "modalHeading3": "Sign a contract with the perfect match!",
  "modalText3": "Start on your dream job or complete your team with the perfect talent"
}